Evaluation of management alternatives across systems • whitetailedSIRS
…
4.Combine and summarize results

Below, we combine the results for all alternatives, for all
combinations of captive and wild scenarios (systems). These results are
saved in the package’s data folder, and can be accessed through
whitetailedSIRS::alternatives_across_systems.

alternatives_across_systems <- rbind(alternatives_for_ranch_suburban_complex, alternatives_for_ranch_rural_complex, alternatives_for_intensive_suburban_complex, alternatives_for_intensive_rural_complex)

alternatives_across_systems %>% 
   group_by(., Complex, Alternative) %>% 
   summarize(., Wild_Cumulative = median(cumulativeWild), Captive_Cumulative = median(cumulativeCaptive))
#> `summarise()` has grouped output by 'Complex'. You can override using the
#> `.groups` argument.
#> # A tibble: 50 × 4
#> # Groups:   Complex [4]
#>    Complex                        Alternative Wild_Cumulative Captive_Cumulative
#>    <chr>                          <chr>                 <dbl>              <dbl>
#>  1 Intensive facility and rural … Baseline            0.861                 1.47
#>  2 Intensive facility and rural … Double-fen…         0.494                 1.47
#>  3 Intensive facility and rural … Eliminate …         0.00270               1.47
#>  4 Intensive facility and rural … Improve in…         0.832                 1.14
#>  5 Intensive facility and rural … PPE, Both           0.856                 1.46
#>  6 Intensive facility and rural … PPE, Capti…         0.857                 1.46
#>  7 Intensive facility and rural … PPE, Wild           0.861                 1.47
#>  8 Intensive facility and rural … Pause Rese…         0.861                 1.47
#>  9 Intensive facility and rural … Reduce wil…         0.783                 1.47
#> 10 Intensive facility and rural … Reduce wil…         0.521                 1.47
#> # ℹ 40 more rows
…
